{
  "additionalSettings" : {
    "groups": {
      "$TIMESERIES": {
        "name": "Time Series",
        "desc": "Configuration",
        "subGroups": {
          "$CONFIG": {
            "name": "Configuration",
            "subSets": {
              "$TSTAGLIST": {
                "name": "Tags",
                "properties": {
				  "$pxMaxTagsLimit":{
					"name" : "Max Tags Limit",
					"desc": "Defines the maximum number of TAGS requested to the Time Series Service",
                    "definer": "NUMERIC",
                    "value" : "1000"
				  }
                }
              }
            }
          }
        }
      }
    }
  },
  "predixIntegration" : {
      "provideUAA": true,
      "provideZoneId": true
  }
}